{
    "id": "oasys/core/dds/connext/models/foo",
    "type": "package",
    "value": {
        "description": "Foo DDS data models for RTI Connext Professional",
        "author": "Alex Hendren",
        "version": "5.2.3",
        "language": "cpp",
        "managed": false,
        "noapi": true,
        "dependencies" : [
            "oasys/core/dds/connext/factory"
        ],
        "CXXFLAGS": ["-DRTI_UNIX -m64"]
    }
}
